1000 999
0: 1 5 8 22 47 122 176 237 242 279 337 339 343 424 429 435 452 576 678 862 
1: 0 2 3 4 6 10 11 12 14 17 18 19 23 28 29 31 35 40 41 42 45 48 52 53 55 61 68 70 72 77 80 89 90 95 105 114 115 130 131 148 157 170 174 188 192 207 209 216 220 240 250 254 267 268 271 286 288 299 306 318 321 333 348 360 365 368 380 382 385 402 407 438 458 459 491 499 501 509 519 532 534 550 563 567 596 599 602 610 672 682 689 703 712 748 758 781 801 827 839 841 842 894 902 927 956 963 988 
2: 1 75 85 320 430 686 775 859 
3: 1 7 15 16 137 241 413 545 616 828 884 
4: 1 764 
5: 0 635 684 
6: 1 9 21 32 38 60 97 133 139 194 234 272 394 434 947 964 966 
7: 3 244 540 
8: 0 24 33 36 49 129 136 206 231 295 322 466 517 552 646 685 690 787 790 792 917 934 979 997 
9: 6 27 34 74 153 193 296 444 694 983 
10: 1 20 37 44 123 151 158 190 199 213 217 259 263 269 287 290 294 302 410 455 464 492 504 505 544 600 612 663 668 784 935 
11: 1 
12: 1 13 212 590 846 
13: 12 280 381 655 
14: 1 203 233 251 447 549 651 728 982 
15: 3 
16: 3 66 69 73 82 83 99 101 107 116 117 128 135 138 144 146 164 171 173 177 195 200 218 236 283 289 291 309 327 349 379 384 386 420 454 462 536 578 587 639 666 691 729 757 800 865 
17: 1 46 230 325 
18: 1 954 
19: 1 25 63 79 160 165 634 751 831 
20: 10 494 
21: 6 26 30 43 96 100 111 278 355 366 414 489 548 568 696 796 893 951 
22: 0 67 71 76 91 172 378 537 780 933 
23: 1 
24: 8 163 419 442 645 829 
25: 19 58 159 248 
26: 21 39 211 246 387 393 838 909 
27: 9 
28: 1 94 999 
29: 1 150 277 364 
30: 21 78 301 433 
31: 1 54 208 406 551 595 632 638 731 
32: 6 127 353 832 
33: 8 
34: 9 161 175 210 235 425 527 816 
35: 1 56 109 495 861 891 943 
36: 8 51 293 680 
37: 10 388 456 718 976 
38: 6 300 342 403 
39: 26 106 
40: 1 720 
41: 1 261 569 
42: 1 264 577 
43: 21 57 
44: 10 140 169 701 
45: 1 59 
46: 17 50 121 538 619 
47: 0 304 719 
48: 1 65 205 303 843 
49: 8 186 334 867 
50: 46 184 
51: 36 62 102 168 502 652 683 776 
52: 1 350 361 468 472 565 858 904 953 989 
53: 1 
54: 31 64 84 124 202 229 238 323 460 475 556 621 656 744 845 
55: 1 113 659 
56: 35 86 310 347 409 597 822 848 937 
57: 43 104 256 372 609 657 782 
58: 25 120 149 154 166 275 426 752 847 
59: 45 201 260 412 483 818 819 882 915 
60: 6 197 950 
61: 1 103 110 292 473 574 607 620 881 920 967 
62: 51 141 182 335 664 
63: 19 178 228 628 985 
64: 54 
65: 48 
66: 16 266 
67: 22 132 225 258 273 297 437 508 649 693 794 907 
68: 1 81 88 119 145 155 156 181 189 214 284 356 441 482 767 793 798 815 895 921 981 
69: 16 262 498 
70: 1 92 558 627 778 
71: 22 
72: 1 126 319 
73: 16 198 245 747 
74: 9 
75: 2 
76: 22 
77: 1 520 807 
78: 30 326 643 
79: 19 98 180 316 
80: 1 243 789 
81: 68 87 112 185 274 405 711 723 924 
82: 16 93 493 624 973 
83: 16 727 880 
84: 54 
85: 2 647 726 791 
86: 56 314 453 770 771 926 
87: 81 118 
88: 68 223 888 
89: 1 167 
90: 1 428 
91: 22 
92: 70 152 226 357 417 436 542 593 615 633 735 971 
93: 82 253 467 515 
94: 28 162 699 
95: 1 
96: 21 
97: 6 108 603 667 
98: 79 457 575 687 
99: 16 
100: 21 
101: 16 374 661 676 898 
102: 51 390 581 709 869 
103: 61 
104: 57 
105: 1 
106: 39 
107: 16 125 346 889 
108: 97 
109: 35 313 521 541 623 855 
110: 61 143 204 523 604 877 
111: 21 232 
112: 81 714 
113: 55 134 147 196 507 510 692 
114: 1 529 566 671 
115: 1 
116: 16 
117: 16 282 383 
118: 87 
119: 68 265 755 
120: 58 
121: 46 
122: 0 992 
123: 10 358 
124: 54 
125: 107 476 
126: 72 
127: 32 
128: 16 389 
129: 8 395 809 
130: 1 
131: 1 
132: 67 741 
133: 6 961 
134: 113 
135: 16 
136: 8 330 547 
137: 3 
138: 16 
139: 6 142 396 440 463 497 631 761 872 
140: 44 856 
141: 62 512 
142: 139 
143: 110 
144: 16 670 900 
145: 68 408 765 
146: 16 
147: 113 
148: 1 
149: 58 
150: 29 
151: 10 
152: 92 
153: 9 
154: 58 
155: 68 478 480 626 860 
156: 68 897 972 
157: 1 239 247 821 
158: 10 191 324 
159: 25 
160: 19 222 487 
161: 34 
162: 94 
163: 24 
164: 16 
165: 19 
166: 58 
167: 89 760 
168: 51 362 398 418 
169: 44 257 585 
170: 1 270 
171: 16 179 559 797 991 
172: 22 903 990 
173: 16 
174: 1 351 373 734 978 
175: 34 
176: 0 777 
177: 16 183 307 370 749 906 
178: 63 
179: 171 
180: 79 439 
181: 68 
182: 62 
183: 177 187 215 224 369 525 554 868 892 945 
184: 50 
185: 81 
186: 49 
187: 183 305 404 423 890 
188: 1 914 
189: 68 
190: 10 219 528 
191: 158 
192: 1 
193: 9 227 341 580 837 912 
194: 6 400 
195: 16 
196: 113 710 
197: 60 
198: 73 375 810 
199: 10 948 
200: 16 
201: 59 
202: 54 252 
203: 14 
204: 110 
205: 48 
206: 8 
207: 1 
208: 31 
209: 1 738 
210: 34 
211: 26 522 531 
212: 12 
213: 10 221 802 
214: 68 354 730 756 
215: 183 
216: 1 
217: 10 276 281 308 336 465 606 608 625 637 799 911 957 
218: 16 543 622 928 
219: 190 328 573 833 923 
220: 1 481 
221: 213 681 
222: 160 
223: 88 
224: 183 421 
225: 67 
226: 92 
227: 193 644 
228: 63 
229: 54 
230: 17 
231: 8 811 
232: 111 431 785 
233: 14 
234: 6 
235: 34 311 450 
236: 16 255 
237: 0 
238: 54 
239: 157 
240: 1 249 344 853 
241: 3 836 
242: 0 391 392 564 
243: 80 936 
244: 7 
245: 73 
246: 26 
247: 157 
248: 25 
249: 240 
250: 1 
251: 14 
252: 202 422 
253: 93 285 
254: 1 
255: 236 
256: 57 803 
257: 169 
258: 67 
259: 10 850 
260: 59 641 
261: 41 317 416 901 929 
262: 69 
263: 10 
264: 42 
265: 119 
266: 66 
267: 1 605 732 
268: 1 
269: 10 
270: 170 766 998 
271: 1 
272: 6 
273: 67 
274: 81 594 654 
275: 58 298 411 958 
276: 217 448 
277: 29 516 
278: 21 
279: 0 514 
280: 13 359 399 
281: 217 739 
282: 117 942 
283: 16 
284: 68 
285: 253 312 315 352 377 484 
286: 1 
287: 10 511 700 
288: 1 
289: 16 662 
290: 10 
291: 16 
292: 61 658 
293: 36 745 844 
294: 10 449 
295: 8 817 
296: 9 329 698 
297: 67 588 
298: 275 461 
299: 1 653 679 
300: 38 
301: 30 
302: 10 
303: 48 500 
304: 47 614 
305: 187 479 
306: 1 
307: 177 
308: 217 
309: 16 863 
310: 56 340 870 
311: 235 533 
312: 285 
313: 109 
314: 86 332 885 
315: 285 557 
316: 79 736 
317: 261 535 665 721 
318: 1 962 
319: 72 
320: 2 759 
321: 1 584 
322: 8 
323: 54 530 786 
324: 158 857 
325: 17 345 427 
326: 78 338 367 
327: 16 
328: 219 930 
329: 296 331 443 589 697 
330: 136 673 
331: 329 814 925 941 
332: 314 432 470 
333: 1 445 546 
334: 49 397 
335: 62 849 
336: 217 
337: 0 
338: 326 518 
339: 0 722 
340: 310 506 
341: 193 
342: 38 
343: 0 
344: 240 415 
345: 325 601 753 
346: 107 
347: 56 401 
348: 1 617 733 825 
349: 16 
350: 52 
351: 174 
352: 285 376 503 618 
353: 32 
354: 214 
355: 21 363 
356: 68 446 513 
357: 92 371 
358: 123 
359: 280 583 826 
360: 1 
361: 52 572 812 
362: 168 
363: 355 
364: 29 
365: 1 
366: 21 
367: 326 485 
368: 1 561 570 
369: 183 717 743 
370: 177 
371: 357 725 
372: 57 477 
373: 174 469 675 740 
374: 101 773 
375: 198 
376: 352 
377: 285 
378: 22 
379: 16 805 
380: 1 
381: 13 
382: 1 
383: 117 630 
384: 16 
385: 1 
386: 16 
387: 26 
388: 37 
389: 128 
390: 102 
391: 242 
392: 242 451 768 
393: 26 
394: 6 783 
395: 129 598 650 763 834 974 
396: 139 
397: 334 
398: 168 
399: 280 
400: 194 490 824 939 
401: 347 486 
402: 1 708 746 
403: 38 
404: 187 
405: 81 488 
406: 31 
407: 1 808 
408: 145 
409: 56 
410: 10 886 
411: 275 
412: 59 474 
413: 3 
414: 21 
415: 344 
416: 261 
417: 92 
418: 168 
419: 24 
420: 16 
421: 224 
422: 252 
423: 187 
424: 0 
425: 34 
426: 58 
427: 325 
428: 90 
429: 0 
430: 2 
431: 232 
432: 332 
433: 30 
434: 6 
435: 0 960 
436: 92 
437: 67 
438: 1 
439: 180 
440: 139 
441: 68 
442: 24 
443: 329 
444: 9 
445: 333 579 
446: 356 
447: 14 648 677 
448: 276 
449: 294 471 688 
450: 235 
451: 392 
452: 0 
453: 86 
454: 16 
455: 10 
456: 37 
457: 98 779 
458: 1 
459: 1 
460: 54 
461: 298 
462: 16 
463: 139 
464: 10 
465: 217 
466: 8 
467: 93 707 
468: 52 
469: 373 
470: 332 
471: 449 
472: 52 
473: 61 
474: 412 
475: 54 
476: 125 
477: 372 
478: 155 
479: 305 496 
480: 155 
481: 220 
482: 68 975 
483: 59 613 
484: 285 
485: 367 
486: 401 
487: 160 
488: 405 830 
489: 21 
490: 400 871 
491: 1 879 
492: 10 774 
493: 82 
494: 20 592 
495: 35 
496: 479 
497: 139 
498: 69 706 
499: 1 931 995 
500: 303 
501: 1 
502: 51 539 
503: 352 
504: 10 571 750 
505: 10 636 
506: 340 
507: 113 611 
508: 67 
509: 1 562 
510: 113 
511: 287 
512: 141 560 695 
513: 356 
514: 279 524 
515: 93 591 
516: 277 
517: 8 
518: 338 553 737 
519: 1 
520: 77 526 806 
521: 109 555 910 
522: 211 959 
523: 110 
524: 514 
525: 183 642 
526: 520 674 795 
527: 34 
528: 190 
529: 114 
530: 323 
531: 211 586 
532: 1 582 940 
533: 311 
534: 1 
535: 317 980 
536: 16 873 
537: 22 713 899 938 
538: 46 
539: 502 
540: 7 
541: 109 
542: 92 866 
543: 218 
544: 10 
545: 3 
546: 333 986 
547: 136 769 
548: 21 
549: 14 
550: 1 
551: 31 
552: 8 
553: 518 
554: 183 
555: 521 913 
556: 54 
557: 315 
558: 70 
559: 171 
560: 512 
561: 368 
562: 509 
563: 1 949 
564: 242 
565: 52 
566: 114 
567: 1 754 
568: 21 
569: 41 
570: 368 
571: 504 919 
572: 361 
573: 219 
574: 61 
575: 98 660 
576: 0 
577: 42 
578: 16 
579: 445 
580: 193 993 
581: 102 876 
582: 532 
583: 359 
584: 321 
585: 169 
586: 531 
587: 16 
588: 297 669 
589: 329 
590: 12 
591: 515 
592: 494 946 
593: 92 
594: 274 715 
595: 31 
596: 1 640 
597: 56 705 724 
598: 395 
599: 1 
600: 10 
601: 345 
602: 1 
603: 97 
604: 110 742 
605: 267 
606: 217 
607: 61 
608: 217 
609: 57 
610: 1 
611: 507 
612: 10 
613: 483 875 
614: 304 
615: 92 
616: 3 
617: 348 
618: 352 878 
619: 46 840 
620: 61 
621: 54 
622: 218 922 
623: 109 
624: 82 
625: 217 965 
626: 155 
627: 70 629 
628: 63 702 
629: 627 
630: 383 
631: 139 
632: 31 
633: 92 
634: 19 
635: 5 
636: 505 
637: 217 
638: 31 
639: 16 
640: 596 
641: 260 762 
642: 525 
643: 78 
644: 227 
645: 24 
646: 8 788 
647: 85 
648: 447 
649: 67 
650: 395 
651: 14 
652: 51 
653: 299 772 
654: 274 
655: 13 
656: 54 
657: 57 
658: 292 
659: 55 
660: 575 
661: 101 
662: 289 908 
663: 10 
664: 62 
665: 317 
666: 16 
667: 97 
668: 10 
669: 588 
670: 144 
671: 114 716 
672: 1 
673: 330 
674: 526 887 
675: 373 970 
676: 101 
677: 447 
678: 0 
679: 299 
680: 36 
681: 221 
682: 1 851 
683: 51 
684: 5 
685: 8 
686: 2 864 
687: 98 
688: 449 
689: 1 704 
690: 8 
691: 16 
692: 113 
693: 67 
694: 9 
695: 512 835 
696: 21 
697: 329 
698: 296 
699: 94 
700: 287 813 
701: 44 
702: 628 
703: 1 
704: 689 
705: 597 
706: 498 
707: 467 905 
708: 402 
709: 102 
710: 196 
711: 81 
712: 1 
713: 537 
714: 112 
715: 594 
716: 671 
717: 369 
718: 37 
719: 47 987 
720: 40 
721: 317 
722: 339 
723: 81 820 
724: 597 952 
725: 371 
726: 85 
727: 83 
728: 14 
729: 16 
730: 214 
731: 31 
732: 267 
733: 348 955 
734: 174 
735: 92 
736: 316 
737: 518 
738: 209 
739: 281 
740: 373 
741: 132 
742: 604 
743: 369 
744: 54 
745: 293 
746: 402 
747: 73 
748: 1 
749: 177 
750: 504 
751: 19 
752: 58 
753: 345 
754: 567 
755: 119 
756: 214 852 883 996 
757: 16 
758: 1 
759: 320 
760: 167 823 
761: 139 
762: 641 
763: 395 
764: 4 
765: 145 
766: 270 804 
767: 68 969 
768: 392 
769: 547 
770: 86 
771: 86 
772: 653 
773: 374 
774: 492 
775: 2 
776: 51 874 916 
777: 176 
778: 70 
779: 457 
780: 22 944 
781: 1 
782: 57 
783: 394 
784: 10 
785: 232 
786: 323 
787: 8 
788: 646 
789: 80 
790: 8 
791: 85 
792: 8 
793: 68 
794: 67 
795: 526 
796: 21 
797: 171 
798: 68 
799: 217 
800: 16 
801: 1 
802: 213 
803: 256 
804: 766 
805: 379 
806: 520 
807: 77 
808: 407 984 
809: 129 
810: 198 
811: 231 
812: 361 
813: 700 
814: 331 
815: 68 
816: 34 
817: 295 
818: 59 
819: 59 854 
820: 723 
821: 157 
822: 56 
823: 760 
824: 400 
825: 348 
826: 359 
827: 1 
828: 3 
829: 24 
830: 488 
831: 19 
832: 32 
833: 219 
834: 395 
835: 695 
836: 241 
837: 193 
838: 26 
839: 1 
840: 619 
841: 1 
842: 1 
843: 48 
844: 293 
845: 54 
846: 12 
847: 58 
848: 56 
849: 335 
850: 259 
851: 682 
852: 756 
853: 240 
854: 819 
855: 109 
856: 140 
857: 324 
858: 52 
859: 2 896 
860: 155 
861: 35 
862: 0 
863: 309 
864: 686 
865: 16 
866: 542 
867: 49 
868: 183 
869: 102 
870: 310 
871: 490 
872: 139 932 
873: 536 
874: 776 
875: 613 
876: 581 
877: 110 
878: 618 
879: 491 
880: 83 
881: 61 994 
882: 59 
883: 756 
884: 3 
885: 314 
886: 410 
887: 674 
888: 88 968 
889: 107 
890: 187 
891: 35 
892: 183 
893: 21 
894: 1 
895: 68 
896: 859 
897: 156 
898: 101 
899: 537 
900: 144 
901: 261 
902: 1 
903: 172 
904: 52 
905: 707 
906: 177 
907: 67 
908: 662 
909: 26 
910: 521 918 
911: 217 
912: 193 
913: 555 
914: 188 
915: 59 
916: 776 
917: 8 
918: 910 
919: 571 
920: 61 
921: 68 
922: 622 
923: 219 
924: 81 
925: 331 
926: 86 977 
927: 1 
928: 218 
929: 261 
930: 328 
931: 499 
932: 872 
933: 22 
934: 8 
935: 10 
936: 243 
937: 56 
938: 537 
939: 400 
940: 532 
941: 331 
942: 282 
943: 35 
944: 780 
945: 183 
946: 592 
947: 6 
948: 199 
949: 563 
950: 60 
951: 21 
952: 724 
953: 52 
954: 18 
955: 733 
956: 1 
957: 217 
958: 275 
959: 522 
960: 435 
961: 133 
962: 318 
963: 1 
964: 6 
965: 625 
966: 6 
967: 61 
968: 888 
969: 767 
970: 675 
971: 92 
972: 156 
973: 82 
974: 395 
975: 482 
976: 37 
977: 926 
978: 174 
979: 8 
980: 535 
981: 68 
982: 14 
983: 9 
984: 808 
985: 63 
986: 546 
987: 719 
988: 1 
989: 52 
990: 172 
991: 171 
992: 122 
993: 580 
994: 881 
995: 499 
996: 756 
997: 8 
998: 270 
999: 28 
