storm time = 2
Hamilton3000b.txt : Reboot time: 1 ;find best time  = 3471.6 ; best conncectivity =2906794;
storm time = 3
Hamilton3000c.txt : Reboot time: 1 ;find best time  = 3481.4 ; best conncectivity =2933551;
storm time = 2
Hamilton3000c.txt : Reboot time: 2 ;find best time  = 3491.1 ; best conncectivity =2874324;
storm time = 4
Hamilton3000b.txt : Reboot time: 2 ;find best time  = 3589.1 ; best conncectivity =2918947;
storm time = 2
Hamilton3000c.txt : Reboot time: 3 ;find best time  = 3482.2 ; best conncectivity =2936923;
storm time = 3
Hamilton3000b.txt : Reboot time: 3 ;find best time  = 3585.6 ; best conncectivity =2932484;
storm time = 3
Hamilton3000c.txt : Reboot time: 4 ;find best time  = 3530.5 ; best conncectivity =2918666;
storm time = 3
Hamilton3000b.txt : Reboot time: 4 ;find best time  = 3570 ; best conncectivity =2943145;
storm time = 4
Hamilton3000c.txt : Reboot time: 5 ;find best time  = 3469.8 ; best conncectivity =2909155;
storm time = 3
Hamilton3000b.txt : Reboot time: 5 ;find best time  = 3475.8 ; best conncectivity =2926475;
storm time = 3
Hamilton3000c.txt : Reboot time: 6 ;find best time  = 3580.9 ; best conncectivity =2929972;
storm time = 3
Hamilton3000b.txt : Reboot time: 6 ;find best time  = 3546.4 ; best conncectivity =2914108;
storm time = 3
Hamilton3000c.txt : Reboot time: 7 ;find best time  = 3314.4 ; best conncectivity =2909112;
storm time = 3
Hamilton3000b.txt : Reboot time: 7 ;find best time  = 3412 ; best conncectivity =2935609;
storm time = 4
Hamilton3000c.txt : Reboot time: 8 ;find best time  = 3592.4 ; best conncectivity =2903438;

----------------------------------------------------------
File Name : Hamilton3000c.txt ; Run Times : 8
BKV : 0
f_best : 2874324
f_avg : 2.9144e+06
time_avg of find solution : 3492.8
time_avg of find min solution : 3491.1
succ_time = 1
----------------------------------------------------------

storm time = 4
Hamilton3000b.txt : Reboot time: 8 ;find best time  = 3550.1 ; best conncectivity =2921348;

----------------------------------------------------------
File Name : Hamilton3000b.txt ; Run Times : 8
BKV : 0
f_best : 2906794
f_avg : 2.9249e+06
time_avg of find solution : 3525.1
time_avg of find min solution : 3471.6
succ_time = 1
----------------------------------------------------------

