storm time = 5511
Circuit.txt : Reboot time: 1 ;find best time  = 0.043728 ; best conncectivity =2099;
storm time = 31686
Bovine.txt : Reboot time: 1 ;find best time  = 0.001084 ; best conncectivity =268;
storm time = 5460
Circuit.txt : Reboot time: 2 ;find best time  = 0.13536 ; best conncectivity =2099;
storm time = 31843
Bovine.txt : Reboot time: 2 ;find best time  = 0.001085 ; best conncectivity =268;
storm time = 5490
Circuit.txt : Reboot time: 3 ;find best time  = 0.14015 ; best conncectivity =2099;
storm time = 31861
Bovine.txt : Reboot time: 3 ;find best time  = 0.001028 ; best conncectivity =268;
storm time = 31940
Bovine.txt : Reboot time: 4 ;find best time  = 0.000576 ; best conncectivity =268;
storm time = 5496
Circuit.txt : Reboot time: 4 ;find best time  = 0.035757 ; best conncectivity =2099;
storm time = 31166
Bovine.txt : Reboot time: 5 ;find best time  = 0.000985 ; best conncectivity =268;
storm time = 5471
Circuit.txt : Reboot time: 5 ;find best time  = 0.06029 ; best conncectivity =2099;
storm time = 31713
Bovine.txt : Reboot time: 6 ;find best time  = 0.000928 ; best conncectivity =268;
storm time = 5519
Circuit.txt : Reboot time: 6 ;find best time  = 0.21818 ; best conncectivity =2099;
storm time = 5480
Circuit.txt : Reboot time: 7 ;find best time  = 0.28483 ; best conncectivity =2099;
storm time = 31183
Bovine.txt : Reboot time: 7 ;find best time  = 0.000692 ; best conncectivity =268;
storm time = 6829
Circuit.txt : Reboot time: 8 ;find best time  = 0.097293 ; best conncectivity =2099;

----------------------------------------------------------
File Name : Circuit.txt ; Run Times : 8
BKV : 0
f_best : 2099
f_avg : 2099
time_avg of find solution : 0.12695
time_avg of find min solution : 0.12695
succ_time = 8
----------------------------------------------------------

storm time = 42990
Bovine.txt : Reboot time: 8 ;find best time  = 0.001111 ; best conncectivity =268;

----------------------------------------------------------
File Name : Bovine.txt ; Run Times : 8
BKV : 0
f_best : 268
f_avg : 268
time_avg of find solution : 0.00093613
time_avg of find min solution : 0.00093613
succ_time = 8
----------------------------------------------------------

